Zile,Clickuri,"CPC mediu(RON)",Cost(RON)
TOTAL,192,0,0
"19 iulie 2019",4,0,0
"20 iulie 2019",4,0,0
"21 iulie 2019",10,0,0
"22 iulie 2019",7,0,0
"23 iulie 2019",7,0,0
"24 iulie 2019",11,0,0
"25 iulie 2019",15,0,0
"26 iulie 2019",10,0,0
"27 iulie 2019",5,0,0
"28 iulie 2019",9,0,0
"29 iulie 2019",8,0,0
"30 iulie 2019",6,0,0
"31 iulie 2019",6,0,0
"01 august 2019",3,0,0
"02 august 2019",7,0,0
"03 august 2019",5,0,0
"04 august 2019",10,0,0
"05 august 2019",2,0,0
"06 august 2019",1,0,0
"07 august 2019",7,0,0
"08 august 2019",4,0,0
"09 august 2019",5,0,0
"10 august 2019",4,0,0
"11 august 2019",8,0,0
"12 august 2019",4,0,0
"13 august 2019",6,0,0
"14 august 2019",6,0,0
"15 august 2019",5,0,0
"16 august 2019",2,0,0
"17 august 2019",7,0,0
"18 august 2019",4,0,0
